<?xml version="1.0" standalone="no"?>
<svg width="16" height="16">
 <g id="Approximate">
  <title>Approximate</title>
  <line y2="11" y1="2" x2="14" stroke="#0000FF" stroke-width="2" x1="2" fill="none" id="line_0"/>
  <circle cy="7" stroke="#0000FF" r="1" cx="2" stroke-width="1" fill="#00FFFF" id="circle_1"/>
  <circle cy="12" stroke="#0000FF" r="1" cx="9" stroke-width="1" fill="#00FFFF" id="circle_2"/>
  <circle cy="2" stroke="#0000FF" r="1" cx="10" stroke-width="1" fill="#00FFFF" id="circle_3"/>
  <circle cy="6" stroke="#0000FF" r="1" cx="14" stroke-width="1" fill="#00FFFF" id="circle_4"/>
 </g>
</svg>
