<?xml version="1.0" standalone="no"?>
<svg height="16" width="16">
 <g id="dot">
  <title>dot</title>
  <circle id="dot_0" cx="8" cy="8" stroke-width="1" r="2.5" fill="#5555FF" stroke="#5555FF"/>
 </g>
</svg>
