<?xml version="1.0" standalone="no"?>
<svg height="16" width="16">
 <g id="line">
  <title>line</title>
  <line id="line_0" y1="8" y2="8" x1="4" x2="12" stroke-width="2" fill="none" stroke="#5555FF"/>
  <rect id="rect_0" x="0" height="4" y="6" width="4" stroke-width="1" fill="#55FF7F" stroke="#5555FF"/>
  <rect id="rect_1" x="12" height="4" y="6" width="4" stroke-width="1" fill="#55FF7F" stroke="#5555FF"/>
 </g>
</svg>
