<?xml version="1.0" standalone="no"?>
<svg height="16" width="16">
 <g id="polygon">
  <title>polygon</title>
  <polygon id="polygon_0" stroke-linecap="round" stroke-linejoin="round" stroke-width="2" fill="none" stroke="#5555FF" points="2,2 12,7 5,14 "/>
 </g>
</svg>
